Analysis of the Corpus of Oz Early English - Part 1: Data Preparation
…
extract uni- to trigrams in cooee

# tokenize, tolower, remove stopwords and create ngrams
cooee_toks <- quanteda::tokens(train_cooee$Text_clean) 
cooee_tokngrms <- tokens_ngrams(cooee_toks, n = 1:3)
cooee_ngrmfreq <- train_cooee %>% 
  tidytext::unnest_ngrams(cooee_tokngrms, Text_clean, n = 3, n_min = 1, ngram_delim = "_") %>% 
  dplyr::count(cooee_tokngrms) %>%
  dplyr::rename("ngram" = colnames(.)[1],
                "cooee" = colnames(.)[2])
# inspect
cooee_ngrmfreq

## # A tibble: 527,912 x 2
##    ngram                 cooee
##    <chr>                 <int>
##  1 aaron                     1
##  2 aaron_lived               1
##  3 aaron_lived_deritend      1
##  4 aback                     1
##  5 aback_acts                1
##  6 aback_acts_whole          1
##  7 abana                     1
##  8 abana_pharpar             1
##  9 abana_pharpar_ancient     1
## 10 abandon                   9
## # ... with 527,902 more rows
…
keywordtb <- ngramfreqtb %>%
  dplyr::mutate(Total = cooee+cord) %>%
  dplyr::filter(Total > 10) %>%
  dplyr::mutate(TotalTarget = sum(cooee),
                TotalNonTarget = sum(cord),
                NRows = length(ngram)) %>%
  dplyr::rename(Target = cooee,
                NonTarget = cord,
                Word = ngram) %>%
  dplyr::select(-Total)
# inspect data
keywordtb

## # A tibble: 6,239 x 6
##    Word       Target NonTarget TotalTarget TotalNonTarget NRows
##    <chr>       <dbl>     <dbl>       <dbl>          <dbl> <int>
##  1 abandoned      20         0      259912         119501  6239
##  2 abide           5        11      259912         119501  6239
##  3 abilities      11         6      259912         119501  6239
##  4 able          308        55      259912         119501  6239
##  5 able_give      15         2      259912         119501  6239
##  6 able_make      14         3      259912         119501  6239
##  7 abode          20         1      259912         119501  6239
##  8 aborigines     39         0      259912         119501  6239
##  9 abound         11         0      259912         119501  6239
## 10 abreast        17         0      259912         119501  6239
## # ... with 6,229 more rows
…
## [1] 2560

Select keywords with substantive effect size (phi > .02)

# filter keywords with phi > .2
bigsigkeywords <- sigkeywords %>%
  dplyr::filter(phi > .02)
# save data to disc
readr::write_delim(bigsigkeywords, here::here("tables", "bigsigkeywords.txt"), delim = "\t")
# inspect
bigsigkeywords

## # A tibble: 22 x 12
##    Word    Target NonTarget TotalTarget TotalNonTarget     p    x2    phi
##    <chr>    <dbl>     <dbl>       <dbl>          <dbl> <dbl> <dbl>  <dbl>
##  1 miles     2033         4      259912         119501     0  928. 0.0495
##  2 water     1521        87      259912         119501     0  508. 0.0366
##  3 country   1246        48      259912         119501     0  463. 0.0349
##  4 creek      610         0      259912         119501     0  280. 0.0271
##  5 river      666        14      259912         119501     0  272. 0.0268
##  6 camp       593         1      259912         119501     0  269. 0.0266
##  7 natives    554         0      259912         119501     0  254. 0.0259
##  8 south      518         2      259912         119501     0  232. 0.0247
##  9 north      520         7      259912         119501     0  221. 0.0241
## 10 found      918       102      259912         119501     0  218  0.024 
## # ... with 12 more rows, and 4 more variables: RateTarget <dbl>,
## #   RateNonTarget <dbl>, Type <chr>, CorrSignificance <chr>
…
# tokenize and create ngram freqs
cooee_ngrmfreq <- cooee_clean %>%
  dplyr::select(id, Datecat, Text_clean) %>%
  dplyr::group_by(Datecat) %>%
  tidytext::unnest_ngrams(cooee_tokngrms, Text_clean, n = 1, n_min = 1, ngram_delim = "_") %>% 
  dplyr::count(cooee_tokngrms) %>%
  dplyr::rename("Period" = colnames(.)[1],
                "Word" = colnames(.)[2],
                "Freq" = colnames(.)[3]) %>%
  dplyr::rowwise() %>%
  dplyr::mutate(Period = paste0("Period_", Period))
# inspect
cooee_ngrmfreq

## # A tibble: 49,308 x 3
## # Rowwise:  Period
##    Period           Word       Freq
##    <chr>            <chr>     <int>
##  1 Period_1788-1800 abandoned     1
##  2 Period_1788-1800 abate         1
##  3 Period_1788-1800 abated        2
##  4 Period_1788-1800 abbeys        1
##  5 Period_1788-1800 abcondon      1
##  6 Period_1788-1800 abide         1
##  7 Period_1788-1800 abilities     6
##  8 Period_1788-1800 ability       1
##  9 Period_1788-1800 abject        1
## 10 Period_1788-1800 abjure        1
## # ... with 49,298 more rows

convert to wide

cooee_ngrmfreq_wd <- cooee_ngrmfreq %>%
  tidyr::spread(Period, Freq) %>%
  replace(is.na(.), 0) %>%
  dplyr::filter(nchar(Word) > 2)
# inspect
cooee_ngrmfreq_wd

## # A tibble: 23,353 x 7
##    Word    `Period_1788-180~ `Period_1801-182~ `Period_1821-18~ `Period_1841-18~
##    <chr>               <int>             <int>            <int>            <int>
##  1 aaron                   0                 0                0                1
##  2 aback                   0                 0                0                1
##  3 abana                   0                 0                0                1
##  4 abandon                 0                 1                0                0
##  5 abando~                 1                 1                8                1
##  6 abando~                 0                 0                0                0
##  7 abando~                 0                 0                0                1
##  8 abashed                 0                 0                1                0
##  9 abate                   1                 0                1                0
## 10 abated                  2                 0                2                0
## # ... with 23,343 more rows, and 2 more variables: Period_1861-1880 <int>,
## #   Period_1881-1900 <int>
…
  group_by(id) %>%
  tidytext::unnest_ngrams(cooee_tokngrms, Text_clean, n = 1, n_min = 1, ngram_delim = "_") %>% 
  dplyr::count(cooee_tokngrms) %>%
  dplyr::rename("letter" = colnames(.)[1],
                "word" = colnames(.)[2],
                "freq" = colnames(.)[3]) %>%
  dplyr::filter(word %in% sigkeywords$Word) %>% 
  tidyr::spread(word, freq) %>% 
  replace(is.na(.), 0)
# remove letter
cooee_ngrmfreq <-cooee_ngrmfreq[, 2:ncol(cooee_ngrmfreq)]
# inspect
cooee_ngrmfreq

## # A tibble: 558 x 41
##    camels  camp camped colony country course creek distance  east england  feet
##     <int> <int>  <int>  <int>   <int>  <int> <int>    <int> <int>   <int> <int>
##  1      0     0      0      0       5      0     0        1     0       0     1
##  2      0     0      0      0       0      0     0        4     0       0     5
##  3      0     2      0      7       9      1     0        6     5      12    22
##  4      0     0      0      0       0      0     0        0     0       1     0
##  5      0     0      0      6       5      0     0        4     0       1     0
##  6      0     0      0      0       4      0     0        0     0       0     0
##  7      0     0      0      0       0      0     0        0     0       2     0
##  8      0     0      0      1       0      0     0        1     0       0     0
##  9      0     0      0      0       0      0     0        0     0       2     0
## 10      0     1      0      0       0      0     0        0     0       1     0
## # ... with 548 more rows, and 30 more variables: found <int>, hills <int>,
## #   horses <int>, large <int>, like <int>, mile <int>, miles <int>,
## #   native <int>, natives <int>, nearly <int>, north <int>, passed <int>,
## #   rain <int>, range <int>, reached <int>, river <int>, round <int>,
## #   ship <int>, south <int>, started <int>, still <int>, sydney <int>,
## #   though <int>, three <int>, travelled <int>, trees <int>, water <int>,
## #   went <int>, west <int>, wind <int>
…
